{
    "navbar-home" : "主页",
    "navbar-freeproxylist" : "免费代理列表",
    "navbar-proxychecker" : "代理检查",
    "navbar-onlineproxychecker" : "在线代理检查",
    "navbar-proxyfilter" : "代理过滤",
    "navbar-extras" : "额外",
    "navbar-extras-donate" : "捐款",
    "navbar-extras-status" : "状态",
    "navbar-extras-poll" : "轮询",
    "navbar-extras-api" : "应用程序接口",
    "navbar-communities" : "世界",
    "navbar-communities-discord" : "Discord",
    "navbar-communities-telegram" : "Telegram",
    "navbar-communities-reddit" : "Reddit",
    "navbar-info" : "信息",
    "navbar-info-about" : "关于我们",
    "navbar-info-faq" : "常问问题",
    "navbar-info-contact" : "联系",
    "banner-1-title" : "免费",
    "banner-1-subtitle" : "proxy list",
    "banner-1-desc" : "我们每隔15分钟更新一次(PROXY)列表，以确保您获得最新鲜的工作(PROXY)。",
    "banner-1-button" : "立即免费获得(PROXY)",
    "banner-2-title" : "快速",
    "banner-2-subtitle" : "(PROXY) 检查",
    "banner-2-desc" : "We provide as up to date proxies as we can but we still suggest checking the proxies with your preferred timeout.",
    "banner-2-button" : "下载(PROXY)检查器",
    "banner-3-title" : "加入",
    "banner-3-subtitle" : "我们的discord xserver",
    "banner-3-desc" : "您有任何疑问或只是想聊聊吗？ 加入我们的discord server！",
    "banner-3-button" : "现在加入！",
    "banner-4-title" : "更多",
    "banner-4-subtitle" : "关于proxyscrape",
    "banner-4-desc" : "这里，我们将说明proxyscrape是如何诞生的,如何检查代理,等问题.",
    "banner-4-button" : "查看更多关于proxyscrape",
    "home-window-title" : "首页 - 从这里开始",
    "home-title" : "欢迎来到首页",
    "home-body" : "欢迎使用proxyscrape,我们提供代理信息和使用方法,一个非常快速的代理检查程式和30000多http|socks4|socks5代理列表，每15分钟更新一次.",
    "home-button-1" : "免费",
    "home-button-2" : "最新代理",
    "home-button-3" : "快速 & 简单",
    "freeproxylist-window-title" : "免费代理列表 - 刚刚检查了代理",
    "freeproxylist-title" : "免费代理列表 - 刚刚检查了代理",
	"freeproxylist-currentpage" : "免费代理列表",
    "freeproxylist-http-title" : "检查过的HTTP代理列表",
    "freeproxylist-http-desc" : "检查过的HTTP代理列表,只需下载它,就可以直接使用了!",
    "freeproxylist-socks4-title" : "检查过的Socks4代理列表",
    "freeproxylist-socks4-desc" : "检查过的Socks4代理列表,只需下载它,就可以直接使用了!",
    "freeproxylist-socks5-title" : "检查过的Socks5代理列表",
    "freeproxylist-socks5-desc" : "检查过的Socks5代理列表,只需下载它,就可以直接使用了!",
    "freeproxylist-lastupdated" : "最近更新时间:",
    "freeproxylist-minsago" : "秒前",
    "freeproxylist-timeout" : "超时:",
    "freeproxylist-country" : "国家:",
    "freeproxylist-ssl" : "SSL",
    "freeproxylist-anonymity" : "匿名性:",
    "freeproxylist-onlyfor" : "仅限http代理",
	"freeproxylist-all" : "全部",
	"freeproxylist-yes" : "yes",
	"freeproxylist-no" : "no",
    "proxychecker-window-title" : "免费快速代理检查工具",
    "proxychecker-title" : "代理检查",
    "proxychecker-desc" : "WolfCrawler制作的非常快速的(PROXY)检查程序可以检查http (PROXIES)，Socks5 (PROXIES)和Socks4 (PROXIES)。",
	"onlineproxychecker-window-title" : "在线(PROXY)检查器",
	"onlineproxychecker-invalid" : "No proxies could be loaded. The list is invalid",
	"onlineproxychecker-notfinished" : "检查员还没有完成",
	"onlineproxychecker-title" : "在线(PROXY)检查器",
	"onlineproxychecker-check" : "校验 PROXIES",
	"onlineproxychecker-status" : "检查员的状态",
	"onlineproxychecker-dead" : "没有运作",
	"onlineproxychecker-working" : "操作",
	"onlineproxychecker-deadproxies" : "没有运作 (PROXIES)",
	"onlineproxychecker-workingproxies" : "操作 (PROXIES)",
	"onlineproxychecker-totalproxies" : "总 (PROXIES)",
	"onlineproxychecker-download" : "下载工作 (PROXIES)",
    "proxyfilter-window-title" : "在线代理过滤",
    "proxyfilter-big-title" : "代理过滤",
    "proxyfilter-title" : "代理过滤",
    "proxyfilter-desc" : "代理过滤格式为 ip:端口",
    "proxyfilter-button" : "过滤",
    "donate-window-title" : "捐助给Proxyscrape",
    "donate-big-title" : "捐助",
    "donate-title" : "捐助给PROXYSCRAPE",
    "donate-desc" : "为了让Proxyscrape存活下去,我们需要捐助.您所捐赠的钱将用于支付服务器费用,如果我自己无法制作或修复某些东西,也会作为报酬支付给其它的开发人员.",
    "donate-month-server-title" : "用于服务器的每月捐赠目标",
    "donate-month-projects-title" : "用于未来项目开发相关的每月捐赠目标",
    "donate-subdesc" : "这些捐款存在coinbase.",
	"donate-complete" : "完成",
    "status-window-title" : "Proxyscrape服务器状态",
    "status-big-title" : "状态",
    "status-title" : "服务器状态",
    "status-desc" : "此页用于检查检查服务器是否正常工作.",
	"api-window-title" : "ProxyScrape代理应用程式介面",
    "api-big-title" : "应用编程接口文档",
	"api-introduction-title" : "INTRODUCTION",
	"api-introduction-desc" : "Hello and welcome to the ProxyScrape API, the API can be used to download, display, get the proxy amount and last updated time in a efficient way.",
	"api-request-types-title" : "REQUEST TYPES",
	"api-request-types-desc" : "您可以制作4种类型的API请求 getproxies, displayproxies, amountproxies and lastupdated",
	"api-request-types-getproxies-title" : "getproxies",
	"api-request-types-getproxies-desc" : "getproxies 一旦导航到网址，将立即下载(PROXY)。</br>getproxies 支持多种参数，包括：",
	"api-request-types-box" : "Output: Downloads elite http proxies with SSL enabled with a timeout of 5000ms located in the US in the common ip:port format.",
	"api-request-types-displayproxies-title" : "displayproxies",
	"api-request-types-displayproxies-description" : "displayproxies 不会下载(PROXIES)而是会在网站上显示(PROXIES)。</br>displayproxies 支持多种参数，包括：",
	"api-request-types-displayproxies-box" : "Output: Displays elite http proxies with SSL disabled with a timeout of 7000ms located in the DE in the common ip:port format.",
	"api-request-types-amountproxies-title" : "amountproxies",
	"api-request-types-amountproxies-desc" : "amountproxies 将返回给定条件的可用(PROXIES)数量。</br>amountproxies 支持多种参数，包括：",
	"api-request-types-amountproxies-box" : "输出：将返回给定条件的(PROXIES)数量。",
	"api-request-types-lastupdated-title" : "lastupdated",
	"api-request-types-lastupdated-desc" : "lastupdated 将在上次更新的(PROXIES)时返回。</br>lastupdated 只需要1个参数：",
	"api-request-types-lastupdated-box" : "输出：将返回给定条件的最后更新时间，lastupdated仅需要proxytype参数.",
	"api-parameters-title" : "参数",
	"api-parameters-desc" : "参数用于告诉API您需要哪种代理。",
	"api-parameters-proxytype-title" : "proxytype",
	"api-parameters-proxytype-desc1" : "proxytype 有4个允许的参数：",
	"api-parameters-proxytype-desc2" : "如果不使用该参数，代理类型将自动设置为all。",
	"api-parameters-timeout-title" : "timeout",
	"api-parameters-timeout-desc" : "超时以毫秒为单位。</br>如果未定义超时，则超时自动设置为10秒.",
	"api-parameters-country-title" : "country",
	"api-parameters-country-desc1" : "国家/地区参数可以是任何Alpha 2 ISO国家/地区代码或“全部”，国家/地区代码可以在<a href='https://www.nationsonline.org/oneworld/country_code_list.htm'>这里</a>中找到",
	"api-parameters-country-desc2" : "如果未定义任何国家/地区，则国家/地区将自动设置为全部",
	"api-parameters-anonymity-title" : "anonymity",
	"api-parameters-anonymity-desc1" : "匿名有4个允许的参数：",
	"api-parameters-anonymity-desc2" : "如果未定义匿名级别，则会自动将其设置为all",
	"api-parameters-ssl-title" : "ssl",
	"api-parameters-ssl-desc1" : "ssl有3种允许的值,分别是:",
	"api-parameters-ssl-desc2" : "不传递此参数时,将返回所有类型的代理.",
	"api-input" : "输入",
    "aboutus-window-title" : "关于我们",
    "aboutus-big-title" : "关于我们",
    "aboutus-title" : "关于Proxyscrape",
    "aboutus-subtitle" : "proxyscrape是如何诞生的以及我们这样做的目的",
    "aboutus-desc" : "We here at ProxyScrape work tirelessly (beep-boop) to provide you with consistent, reliable, easy-access HTTP and Socks proxies from all over the globe. We run a constant system to make sure you're never without fresh proxies! The proxies are public; you can use them however you wish. We believed there was a severe lack of reliable, clean sources of proxies; hence, ProxyScrape was born. We know there are many other sources out there, so we've gone ahead and done the work for you! All you need to do is click on the buttons, and you will download proxies that have been scraped from many sources. When you download the checked proxy source, you download proxies that were already verified to be working when they were uploaded. Make sure to check proxies again with your preferred timeout using your own proxy checker. This site is constantly and automatically updated from our very own custom-made proxy system. Our proxy checker checks proxies with 800+ threads and a proxy timeout of 10 seconds. In the backend, we use a python proxy checker and a python proxy scraper with over 86+ proxy sources. Keep checking back if you ever need any more proxies. Feel free to share and to tell your friends about ProxyScrape!",
    "faq-window-title" : "Frequently asked questions",
    "faq-big-title" : "FREQUENTLY ASKED QUESTIONS",
    "faq-title" : "HERE ARE SOME COMMON QUESTIONS ABOUT PROXIES & PROXYSCRAPE",
    "faq-opt-connect" : "Connect to proxies",
    "faq-opt-connect-firefox-title" : "How to connect to proxies in Firefox?",
    "faq-opt-connect-firefox-desc" : "1. Open the Firefox Menu and select Options. <br>2. In the Options window click on the Advanced icon. <br>3. Select the Network Tab. <br>4. In the Connection section click the Settings button. <br>5. In the Connection Settings window select 'Manual proxy configuration' and enter the proxy address and port in the HTTP field. <br>6. Select 'use this proxy server for all protocols.' <br>7. Close the Connection Settings and Options windows by clicking on the OK button." ,
    "faq-opt-connect-internet-explorer-title" : "How to connect to proxies in Internet Explorer?",
    "faq-opt-connect-internet-explorer-desc" : "1. Click the Tools icon in the top right corner, then click on Internet options. <br>2. Click on the connections tab. <br>3. Click the 'LAN Settings' button. <br>4. In the LAN Settings, uncheck the box that says 'Automatically detect settings'. <br>5. In the Proxy Server Section, click the checkbox to enable 'Use a proxy server for your LAN...' <br>6. In the address field, enter the IP address of your proxy, and the proxy port number in the port field. <br>7. Press OK and then OK again to save your settings.",
    "faq-opt-connect-google-chrome-title" : "How to connect to proxies in Google Chrome?",
    "faq-opt-connect-google-chrome-desc" : "1. Open the settings and scroll down to advanced. <br>2. Click open proxy settings. <br>3. Click the 'LAN Settings' button. <br>4. In the LAN Settings, uncheck the box that says 'Automatically detect settings'. <br>5. In the Proxy Server Section, click the checkbox to enable 'Use a proxy server for your LAN...' <br>6. In the address field, enter the IP address of your proxy, and the proxy port number in the port field. <br>7. Press OK and then OK again to save your settings.",
    "faq-opt-connect-opera-title" : "How to connect to proxies in Opera?",
    "faq-opt-connect-opera-desc" : "1. Open the settings. <br>2. Click open change proxy settings. <br>3. Click the 'LAN Settings' button. <br>4. In the LAN Settings, uncheck the box that says 'Automatically detect settings'. <br>5. In the Proxy Server Section, click the checkbox to enable 'Use a proxy server for your LAN...' <br>6. In the address field, enter the IP address of your proxy, and the proxy port number in the port field. <br>7. Press OK and then OK again to save your settings",
    "faq-opt-security" : "Security",
    "faq-opt-security-log-title" : "What do we log?",
    "faq-opt-security-log-desc" : "We log everything the proxy server does, checking proxies scraping proxies ect, we also use Google analytics to track user activity. We currently do not log any ip's of our users.",
    "faq-opt-security-protection-title" : "Does a proxy protect me form hackers?",
    "faq-opt-security-protection-desc" : "A proxy may add a extra layer of protection but this still doesn't make you 100% safe. The proxies we provide are public proxies, this means the proxy can also be infected.",
    "faq-opt-security-ip-title" : "Can people see my ip if original ip if I use a proxy?",
    "faq-opt-security-ip-desc" : "Depending on the proxies you use, transparent proxy, elite proxy, anonymous proxy, people may or may not see your original ip address.",
    "faq-opt-security-crypt-title" : "Is my data encrypted when using a proxy?",
    "faq-opt-security-crypt-desc" : "If use a secure sockets layer proxy or ssl proxy your data is mostly encrypted between you and the proxy server.",
    "faq-opt-limits" : "Limitations",
    "faq-opt-limits-purpose-title" : "For what purpose can i use this proxies?",
    "faq-opt-limits-purpose-desc" : "These proxies are totally public and you can use them for anything you want but some of the proxies can be banned on the sites you want to use.",
    "faq-opt-limits-bandwidth-title" : "What is the proxy bandwidth?",
    "faq-opt-limits-bandwidth-desc" : "If the bandwidth of the proxy is exceeded the proxy will probably die.",
    "faq-opt-limits-timeout-title" : "What is the proxy connection timeout?",
    "faq-opt-limits-timeout-desc" : "The connection timeout can be anything from 50ms up to 100 seconds but we check our proxy list with 30 seconds timeout.",
    "faq-opt-limits-scrape-title" : "Can i use a scraper to download the proxies from this website?",
    "faq-opt-limits-scrape-desc" : "Yes you can use a proxy scraper to download the proxy list, as long as you don't harm the website we don't care.",
    "faq-opt-backend" : "Back-end",
    "faq-opt-backend-freeproxy-title" : "How often does the free proxy list update?",
    "faq-opt-backend-freeproxy-desc" : "The free proxy list is updating every 15-20 minutes.",
    "faq-opt-backend-protocols-title" : "What proxy protocols do you check for?",
    "faq-opt-backend-protocols-desc" : "We check for http(s), socks4 and socks5 protocol.",
    "faq-opt-backend-websites-title" : "How many websites do you scrape from?",
    "faq-opt-backend-websites-desc" : "Between 80-100 proxy websites depending if they are still working.",
    "faq-opt-backend-language-title" : "In what coding language is your proxy checker coded?",
    "faq-opt-backend-language-desc" : "Our proxy checker is coded in python3.",
    "faq-opt-money" : "Money & donations",
    "faq-opt-money-earn-title" : "How do you make money of this proxy website?",
    "faq-opt-money-earn-desc" : "Currently we don't make any profit of this proxy website.",
    "faq-opt-money-donate-title" : "Can I donate?",
    "faq-opt-money-donate-desc" : "Yes you can donate with crypto's: <br>BTC: 3Bexk92aipRFeW3rQK3SBKBNTQ3URqiR79 <br>ETH: 0x0D3B38690ad9A65737532E694AD534646b8E2562 <br>We will try to reward the donations by giving you a thanks on the about page with a url to your website / profile.",
    "faq-opt-money-ads-title" : "Can you make my site pop-up when people click download?",
    "faq-opt-money-ads-desc" : "Yes for an acceptable price we will happily display your advertisement on our website, contact me on discord: Thiplol#0248.",
    "faq-opt-money-cost-title" : "How much do you pay for you proxy website",
    "faq-opt-money-cost-desc" : "It depends on what my plans are something between $30-40 a month.",
	"faq-opt-others" : "Others",
    "faq-opt-others-buy-title" : "What is the best place to buy proxies",
    "faq-opt-others-buy-desc" : "For paid proxies we suggest <a href='https://rsocks.net/signup?ref=E59nazidAezSO-GpRyxmcmH-MKKZwV3DiocjVH'>rSocks</a> and <a href='http://www.proxyrack.com/access/aff/go/psychicalts&#10;'>ProxyRack</a>.",
    "faq-opt-others-sell-title" : "Do you sell any proxies?",
    "faq-opt-others-sell-desc" : "As much as we would love to sell proxies, ipv4 proxies are very expensive and we don't have the money for that currently. Ipv6 proxies are very cheap, there are places out there selling millions for under $1 but most programs don't support ipv6 proxies yet.",
    "faq-opt-others-start-title" : "Why did you start this website?",
    "faq-opt-others-start-desc" : "We think there is a lack of free proxy list websites that display all online proxies.",
    "faq-opt-others-help-title" : "Who helped making this website?",
    "faq-opt-others-help-desc" : "The website is mainly made by <a href='https://www.nulled.to/user/1193005-notthiplol'>Thiplol</a> and <a href='https://www.nulled.to/user/1451856-amfuck'>AmKid</a>",
	"poll-title" : "轮询",
    "contact-big-title" : "联系我们",
    "contact-title" : "沟通就是一切",
    "contact-desc" : "您还有其他问题，或者您只是想做生意吗？ 你可以在这里联系我们",
    "contact-button-title" : "电邮我们",
    "contact-button-desc" : "或直接发送电子邮件至contact@proxyscrape.com",
    "footer-faq-title" : "经常问的问题",
    "footer-faq-desc" : "您对(PROXIES)或如何连接它们有任何疑问吗？ 在联系我们之前，请查看此(PROXY)常见问题解答。",
    "footer-faq-button" : "Go TtoFAQ",
    "footer-contact-title" : "Contact us",
    "footer-contact-desc" : "After reading the proxy FAQ you still have a question or maybe you want to donate to our free proxy service? You can contact us here.",
    "footer-contact-button" : "Contact us",
    "footer-discord-title" : "加入 discord",
    "footer-discord-desc" : "Do you have any questions, or just want to have a chat? Join our discord server!",
    "footer-discord-button" : "加入 discord",
    "footer-freeproxylist-title" : "Free proxy list",
    "footer-freeproxylist-desc" : "30.000+ free HTTP Socks5 and Socks4 Proxy lists, the proxies are updated every 15 minutes to ensure you get the most fresh proxies.",
    "footer-freeproxylist-button" : "Download free proxy list",
    "footer-about-title" : "About Proxyscrape",
    "footer-about-desc" : "Here we tell you a little extra about Proxyscrape, how we check the proxies and who is resposible for this sexy proxy website.",
    "footer-about-button" : "了解我们",
    "footer-checker-title" : "Proxy 检查",
    "footer-checker-desc" : "非常快 proxy 检查 由WolfCrawler制作。 它可以以令人难以置信的速度检查http，socks5和socks4 (PROXIES)。",
    "footer-checker-button" : "快点 proxy 检查",
	"footer-notify-1" : "Make it yourself cozy and join the <a href='https://www.reddit.com/r/proxyscrape'> ProxyScrape sub-reddit</a>",
	"footer-notify-2" : "Join our <a href='https://t.me/proxyscrape'> Telegram </a>and get a clean overview of whats comming up!",
	"footer-notify-3" : "Join our<a href='https://proxyscrape.com/discord'> discord </a>to know whats comming soon!",
	"footer-notify-4" : "Like ProxyScrape? Consider <a href='/en/donate'>donating!</a>",
	"footer-dark" : "黑暗的主题",
	"footer-light" : "轻主题",
	"footer-notify-close" : "关"
}
